401 33110 308
28 61363 340
65 78352 351
819 18579 279
525 96779 351
919 48493 324
572 68269 340
923 48394 324
528 58361 340
99 89314 351
969 82993 351
172 23934 282
209 84779 351
858 85224 351
906 42510 324
657 93842 351
4 42026 324
339 31007 308
74 39378 324
447 53778 340
956 88503 351
739 46673 324
184 33346 308
272 15797 276
769 1549 182
788 12177 268
610 31966 308
485 59069 340
524 82433 351
273 80926 351
738 84897 351
979 22803 279
902 43811 324
256 16894 276
388 59072 340
783 99309 351
732 57149 340
982 56677 340
941 13288 276
369 37962 324
213 64848 340
958 61325 340
965 57249 340
532 82035 351
785 89371 351
394 61981 340
437 81743 351
420 41785 324
363 36566 324
655 50149 324
42 5517 238
542 70843 340
192 10384 262
517 58845 340
151 91090 351
699 48094 324
718 26102 282
557 43083 324
422 9102 262
412 52597 340
229 26541 282
520 39899 324
760 29899 308
39 50072 324
368 73813 340
30 7878 262
511 20717 279
176 54254 340
365 93253 351
556 79150 351
515 72404 340
24 38789 324
992 46259 324
796 47294 324
841 83031 351
658 74486 340
547 74475 340
9 37835 324
213 46761 324
800 63684 340
177 32021 308
703 65399 340
561 90261 351
177 80603 351
574 12657 268
391 86251 351
3 85347 351
302 70354 340
600 46075 324
48 51609 324
355 19538 279
976 90347 351
248 15721 276
767 31810 308
385 86910 351
723 55888 340
585 42953 324
143 44331 324
691 17721 279
790 85621 351
192 60550 340
273 72391 340
372 44083 324
768 86202 351
514 46242 324
733 21490 279
86 43027 324
36 97512 351
552 30555 308
679 85042 351
873 60733 340
293 59345 340
877 62247 340
250 60022 340
289 90892 351
138 6225 262
62 75801 340
431 67512 340
91 99766 351
235 29969 308
145 68732 340
759 33277 308
79 49005 324
281 53472 340
686 38740 324
260 80753 351
591 62266 340
465 40890 324
633 55650 340
924 13900 276
974 65346 340
889 94243 351
309 8542 262
117 51665 324
418 2435 183
562 2410 183
569 70748 340
26 11212 268
34 81396 351
828 22312 279
831 92682 351
75 11601 268
561 77002 340
988 3360 217
231 1357 182
664 17858 279
816 10895 262
320 83519 351
816 53993 340
255 33351 308
255 84843 351
577 38266 324
471 90840 351
225 69300 340
772 88957 351
167 29076 308
126 65679 340
441 55016 340
145 49856 324
208 27351 308
454 77310 351
860 98154 351
626 59016 340
394 43416 324
444 5134 238
361 28044 308
84 91844 351
636 88309 351
503 91138 351
777 34410 311
207 90043 351
656 65784 340
663 44408 324
56 17737 279
581 53233 340
363 41906 324
536 15527 276
586 82298 351
720 58465 340
835 83810 351
28 25793 282
118 84406 351
743 62529 340
279 72302 340
492 64592 340
302 41505 324
777 32835 308
923 43751 324
192 45434 324
644 51784 324
311 46064 324
129 82311 351
561 75998 340
22 27077 308
926 35629 311
143 95539 351
301 60821 340
875 96215 351
522 59799 340
63 53498 340
827 52788 340
620 91885 351
948 96616 351
482 46613 324
818 90663 351
283 6938 262
501 14706 276
116 95047 351
14 51125 324
806 53471 340
296 46720 324
323 95165 351
299 13856 276
684 58213 340
507 52697 340
247 49453 324
391 81603 351
542 85442 351
477 74047 340
203 62360 340
60 4948 238
959 1809 182
169 8585 262
42 97161 351
75 7969 262
108 67996 340
418 83759 351
370 68725 340
41 78516 351
541 78739 351
892 93340 351
772 858 153
509 70961 340
65 14036 276
345 41658 324
865 48770 324
183 19797 279
133 51555 324
281 53932 340
374 29951 308
19 44694 324
61 23632 282
80 3213 217
880 88974 351
51 59207 340
537 16150 276
243 68627 340
513 89270 351
664 80658 351
1 96183 351
138 94992 351
865 28807 308
842 21245 279
809 28643 308
88 15085 276
4 70846 340
602 68456 340
93 21904 279
534 12206 268
490 80669 351
150 37803 324
381 90272 351
971 91827 351
642 65684 340
61 13946 276
602 25696 282
878 8434 262
717 3069 217
590 66 144
87 96613 351
201 33888 308
697 37721 324
13 52907 340
608 65230 340
464 44679 324
307 24758 282
974 1013 143
125 1287 182
159 52590 340
971 44362 324
367 57181 340
496 55969 340
712 55926 340
355 24886 282
514 97079 351
690 95133 351
922 45593 324
488 98565 351
456 17138 276
746 88800 351
962 38507 324
935 47084 324
990 99161 351
205 89053 351
317 61563 340
992 40201 324
651 75342 340
574 52944 340
979 74608 340
686 92486 351
328 50799 324
919 14399 276
110 96749 351
469 30198 308
950 53427 340
726 89881 351
40 93775 351
154 25876 282
19 9035 262
153 34456 311
656 80459 351
198 55016 340
685 61859 340
233 81824 351
741 7571 262
371 69219 340
884 7488 262
522 53535 340
256 66639 340
805 27615 308
708 88993 351
457 71245 340
206 11878 268
177 1985 182
952 66527 340
156 82955 351
60 99572 351
504 89113 351
368 29839 308
397 29765 308
857 18483 279
85 40959 324
971 82588 351
159 84690 351
286 59892 340
370 11445 268
77 335 144
711 63792 340
40 81188 351
743 75209 340
554 3337 217
347 62986 340
397 86282 351
659 38257 324
648 19237 279
894 95028 351
50 7333 262
832 16046 276
641 17272 276
562 52075 324
779 37231 324
570 22508 279
878 26995 308
227 81527 351
723 61790 340
792 52414 324
476 33341 308
586 90090 351
886 60864 340
641 81347 351
562 65562 340
967 28447 308
118 10620 262
856 44166 324
593 6505 262
158 25758 282
811 48213 324
297 63543 340
786 1407 182
667 90324 351
857 51368 324
89 32692 308
707 79502 351
677 49533 324
629 77898 351
344 84293 351
530 866 171
86 10556 262
472 71852 340
602 46937 324
495 34785 311
576 24991 282
810 20345 279
137 78987 351
814 34792 311
673 54333 340
951 13684 276
900 91489 351
274 50450 324
727 68441 340
597 67677 340
228 31080 308
827 65330 340
53 26302 282
772 45546 324
865 83803 351
952 18005 279
724 12642 268
548 15599 276
656 27196 308
245 29826 308
26 50885 324
306 73752 340
152 72823 340
934 21115 279
590 11696 268
730 52396 324
159 3747 238
441 2076 182
249 81081 351
653 69641 340
697 78689 351
56 54872 340
637 40923 324
333 12492 268
697 63677 340
612 18529 279
537 61152 340
388 10184 262
462 11306 268
634 99519 351
92 85592 351
384 69515 340
807 38600 324
218 11637 268
877 43297 324
785 26142 282
447 49247 324
234 15264 276
17 70111 340
745 19075 279
521 80291 351
830 43289 324
756 29314 308
322 92215 351
828 11311 268
427 81264 351
110 34436 311
643 86255 351
975 98636 351
847 56944 340
343 79178 351
723 64508 340
125 62281 340
499 89088 351
122 20320 279
812 13385 276
426 88161 351
264 30398 308
173 81119 351
977 70521 340
781 57818 340
173 86403 351
671 41129 324
799 8683 262
155 54914 340
518 27971 308
689 83304 351
503 35288 311
873 44594 324
822 23020 279
5 98164 351
490 14801 276
635 74797 340
822 72131 340
649 60012 340
51 25283 282
429 17119 276
675 71436 340
549 71641 340
360 76276 340
656 18719 279
691 56897 340
816 48560 324
865 99077 351
975 83535 351
616 32215 308
566 5518 238
991 31919 308
821 37625 324
107 68638 340
228 8187 262
118 2632 209
88 85553 351
441 54495 340
50 76298 340
506 73085 340
241 31735 308
417 25629 282
407 48149 324
381 96663 351
25 17555 276
748 52727 340
832 88578 351
487 24984 282
797 75385 340
67 45666 324
226 12386 268
364 41052 324
147 79045 351
284 33904 308
427 31182 308
18 4251 238
882 7005 262
85 91149 351
524 77163 351
807 47331 324
781 34708 311
255 50654 324
657 54565 340
238 12127 268
16 21346 279
291 30210 308
6 96500 351
235 37108 324
465 36078 324
376 36275 324
595 54587 340
186 21825 279
728 27910 308
411 19555 279
481 53382 340
283 4572 238
31 8323 262
996 86465 351
507 94121 351
336 73817 340
401 87208 351
151 38483 324
733 78917 351
829 17476 276
654 45121 324
72 56091 340
64 16420 276
719 19715 279
294 65222 340
909 72533 340
579 59386 340
221 74550 340
977 42519 324
896 90772 351
211 20420 279
226 31929 308
949 94111 351
58 85322 351
219 9386 262
200 48415 324
599 20082 279
377 94014 351
636 98750 351
757 59702 340
760 1232 182
154 33333 308
6 65915 340
633 75622 340
465 3938 238
182 93387 351
741 17736 279
134 63507 340
230 36346 324
937 73209 340
876 19669 279
998 89913 351
207 47381 324
62 52078 324
620 73211 340
400 13741 276
546 39258 324
972 87064 351
926 25470 282
443 78848 351
250 97913 351
971 43706 324
524 52011 324
985 54556 340
794 79342 351
735 4629 238
228 39260 324
781 30662 308
994 68477 340
763 11265 268
884 44016 324
349 22876 279
937 71157 340
79 56850 340
406 47157 324
944 20375 279
168 12623 268
35 39093 324
109 92768 351
927 53927 340
581 39406 324
801 6738 262
638 73937 340
256 55131 340
956 81183 351
694 49609 324
160 54994 340
478 8920 262
983 61048 340
192 94295 351
940 78262 351
642 27519 308
408 91321 351
265 93648 351
692 98908 351
229 1833 182
361 66927 340
186 10180 262
23 98442 351
594 58764 340
682 58190 340
552 8091 262
379 16948 276
456 29781 308
923 5268 238
739 9467 262
322 97876 351
142 20492 279
213 58091 340
785 45790 324
773 63025 340
197 76693 340
532 25797 282
111 25758 282
595 30234 308
281 26091 282
583 22751 279
0 15308 276
330 44330 324
536 91333 351
406 75840 340
587 2353 183
308 49955 324
768 91347 351
563 51545 324
648 8117 262
84 70549 340
469 80128 351
353 78180 351
227 26198 282
238 64534 340
24 7919 262
424 70502 340
680 25326 282
385 48712 324
736 4831 238
894 89230 351
484 55855 340
224 8568 262
221 25864 282
302 30294 308
530 23368 279
756 51994 324
375 74877 340
893 14559 276
931 7519 262
211 96112 351
667 61417 340
79 66678 340
44 32565 308
436 92514 351
150 27892 308
974 91315 351
163 26471 282
512 95141 351
143 69950 340
875 71895 340
362 11722 268
130 99094 351
865 95456 351
178 54539 340
362 88204 351
247 29405 308
646 72943 340
538 24069 282
897 97975 351
31 61165 340
636 23994 282
82 53187 340
988 45583 324
777 80736 351
91 71689 340
157 5199 238
909 73264 340
842 72156 340
261 9854 262
646 29403 308
621 89875 351
862 77266 351
909 11061 268
964 36228 324
218 35879 324
997 50235 324
104 3653 217
559 97617 351
194 38553 324
583 73019 340
934 86141 351
264 90899 351
686 67310 340
624 7776 262
225 88554 351
500 15300 276
616 21158 279
764 68162 340
675 27693 308
578 44266 324
524 14009 276
451 71010 340
364 80327 351
992 20018 279
802 52539 340
574 19084 279
354 35663 324
441 68183 340
826 61369 340
87 66839 340
311 57304 340
369 33722 308
774 59418 340
829 38241 324
606 54894 340
190 77129 351
803 95968 351
701 83605 351
334 64631 340
361 91002 351
583 18471 279
705 98630 351
325 69459 340
867 78510 351
876 42499 324
333 48275 324
269 24509 282
816 69904 340
739 53923 340
820 15491 276
273 37161 324
446 19797 279
874 29586 308
423 68648 340
344 2182 182
414 53436 340
294 89042 351
670 43678 324
89 62300 340
730 61165 340
953 12768 268
780 26762 308
581 74124 340
205 71099 340
932 75925 340
30 39708 324
520 6548 262
477 76996 340
493 79585 351
436 26511 282
24 82474 351
788 1101 179
610 27216 308
855 17830 279
60 59646 340
682 73096 340
124 98054 351
881 9007 262
213 18714 279
828 1135 179
37 6532 262
15 25505 282
703 26019 282
24 62920 340
473 20610 279
625 64159 340
417 95159 351
822 66304 340
792 38037 324
552 40307 324
40 29230 308
504 80530 351
442 59176 340
887 26550 282
192 18010 279
162 56607 340
761 55140 340
843 91940 351
947 10185 262
802 51893 324
490 76458 340
419 91306 351
22 37215 324
952 58283 340
531 83668 351
815 49402 324
491 62815 340
855 25824 282
966 63546 340
428 14451 276
449 86561 351
906 53825 340
876 32009 308
141 4379 238
278 81594 351
983 75169 340
963 70603 340
395 57030 340
301 2137 182
615 94208 351
696 25379 282
150 98126 351
879 13349 276
587 15142 276
85 10095 262
82 13914 276
38 39842 324
800 44678 324
124 18694 279
715 48377 324
301 69803 340
147 56638 340
737 922 179
992 44742 324
113 21878 279
670 95443 351
91 14165 276
459 34563 311
538 82293 351
737 81367 351
714 32957 308
134 6079 238
714 92977 351
224 90693 351
98 92625 351
903 48498 324
284 29647 308
179 33056 308
903 98667 351
276 23966 282
142 87052 351
633 27353 308
335 93853 351
568 18189 279
31 13410 276
427 86088 351
258 7478 262
68 71639 340
897 79683 351
463 94928 351
597 82236 351
158 70106 340
23 69594 340
578 78589 351
298 9745 262
340 76834 340
904 70831 340
484 38950 324
944 69201 340
417 4545 238
81 65665 340
159 78573 351
393 399 121
311 48917 324
591 60299 340
456 24763 282
110 59901 340
363 33382 308
346 81057 351
236 28327 308
85 23778 282
188 14086 276
738 2162 182
228 76910 340
715 49987 324
676 43857 324
590 27173 308
9 10169 262
962 89660 351
836 83181 351
791 31805 308
439 79964 351
964 49062 324
836 59368 340
282 63319 340
462 24370 282
69 45585 324
112 85919 351
330 37033 324
140 35908 324
700 31176 308
651 88275 351
281 42850 324
507 23937 282
346 62962 340
656 90771 351
391 10574 262
737 82437 351
952 34572 311
195 93654 351
697 98481 351
875 28179 308
221 81745 351
452 94911 351
211 80937 351
952 97788 351
502 79892 351
267 9273 262
86 81229 351
491 65112 340
236 69602 340
60 50939 324
682 33458 308
313 11274 268
793 56419 340
29 98563 351
996 52834 340
607 55486 340
570 98520 351
899 22044 279
609 11269 268
780 5164 238
870 74811 340
648 72729 340
89 33210 308
869 34100 308
996 30947 308
631 41433 324
652 47964 324
123 26784 308
737 37471 324
837 37443 324
600 50271 324
910 8295 262
79 82264 351
834 22089 279
464 14449 276
453 96806 351
831 70609 340
230 27942 308
629 82683 351
467 92999 351
671 40648 324
876 70978 340
417 55360 340
412 88859 351
628 10964 262
953 43818 324
535 1051 179
829 98625 351
945 3910 238
445 81146 351
28 59458 340
654 88159 351
85 47530 324
0 50549 324
968 58151 340
691 32901 308
577 23493 279
582 90088 351
429 59218 340
790 15279 276
775 53078 340
443 17229 276
390 53546 340
871 36641 324
644 34998 311
751 10851 262
617 555 132
340 64586 340
630 35066 311
227 84920 351
981 74447 340
368 25539 282
949 98477 351
154 44065 324
484 48647 324
871 17999 279
333 93241 351
696 71230 340
450 19585 279
856 41339 324
523 65885 340
246 21081 279
19 16417 276
673 23516 279
115 22645 279
947 89509 351
304 55465 340
350 53941 340
768 69686 340
180 93632 351
970 37907 324
963 44784 324
139 64112 340
396 87955 351
541 53587 340
4 66562 340
778 13868 276
788 96622 351
54 96695 351
